,
Table 1,
"Total Participants, n",56
"Age, median (IQR) ",7.1 (4.4~10.7) 
"Gender, M, n (%) ",33 (58.9) 
Clinical Characteristics,
"Mild Cutaneous/Oral KS, n (%) ",1 (1.8) 
"Moderate Cutaneous/Oral KS, n (%) ",5 (8.9) 
"Lymphadenopathic KS, n (%) ",27 (48.2) 
"Woody Edema KS, n (%) ",10 (17.9) 
"Visceral and/or Disseminated Cutaneous/Oral KS, n (%) ",13 (23.2) 
Anatomical Sites of KS involvement,
"Skin lesions, n (%) ",27 (48.2) 
"Oral involvement, n (%) ",20 (35.7) 
"Lymph node involvement, n (%) ",39 (69.6) 
"Subcutaneous involvement, n (%) ",14 (25) 
"Woody involvement, n (%) ",11 (19.6) 
"Pulmonary involvement, n (%) ",7 (15.6) 
"Gastrointestinal involvement, n (%) ",0 (0) 
"Lesions in other areas than ones listed, n (%) ",4 (10.5) 
"Lesions only in lymph nodes, n (%) ",16 (28.6) 
HIV Characteristics,
"Adult KS classification, n (%) ",19 (33.9) 
"HIV viral load log copies/mL, median (IQR) ",4.7 (2.2~5.4) 
Status of HIV treatment ,23 (41.1) 
"Months on HIV treatment, median (IQR) ",14 (4.5~43.5) 
"CD4 count, median (IQR) ",398 (143~868) 
Baseline Lab Results,
"Hemoglobin, mean (SD) ",8.9 (2.3) 
"Platelet count, median (IQR) ",219 (111.2~347.8) 
"Neutrophil count, median (IQR) ",1971.5 (1334.2~3258.2) 
"White blood cell count, median (IQR) ",7.3 (4.5~9.4) 
