"grp","CD4 count","HIV VL","CD4%","on_ART_more_6_months","quant25","quant50","quant75","Sqrt.CD4.count","log10.HIV.VL","n"
"Pediatric",790,210000,NA,"Not available",12.1655250605964,24.5356882927706,31.6227766016838,28.1069386451104,5.32222136279796,1
"Pediatric",936,47633,NA,"Not available",12.1655250605964,24.5356882927706,31.6227766016838,30.5941170815567,4.67791705232803,2
"Pediatric",900,416173,NA,"Not available",12.1655250605964,24.5356882927706,31.6227766016838,30,5.61927494466648,3
"Pediatric",74,401,NA,"Not available",12.1655250605964,24.5356882927706,31.6227766016838,8.60232526704263,2.60422605308447,4
"Pediatric",1000,112786,NA,"Not available",12.1655250605964,24.5356882927706,31.6227766016838,31.6227766016838,5.0522590450939,5
"Pediatric",NA,6e+05,NA,"Not available",12.1655250605964,24.5356882927706,31.6227766016838,NA,5.77815197420718,6
"Pediatric",NA,233000,NA,"Not available",12.1655250605964,24.5356882927706,31.6227766016838,NA,5.36735778494683,7
"Pediatric",1039,458300,20,"Not available",12.1655250605964,24.5356882927706,31.6227766016838,32.2335229225724,5.66115080486427,8
"Pediatric",259,819576,NA,"Not available",12.1655250605964,24.5356882927706,31.6227766016838,16.0934769394311,5.9135897621825,9
"Pediatric",2013,2163475,24.1,"Not available",12.1655250605964,24.5356882927706,31.6227766016838,44.8664685483491,6.33515208182022,10
"Pediatric",1042,1030356,17.7,"Not available",12.1655250605964,24.5356882927706,31.6227766016838,32.2800247831379,6.01298772593539,11
"Pediatric",NA,92289,NA,"Not available",12.1655250605964,24.5356882927706,31.6227766016838,NA,4.96515464598693,12
"Pediatric",23,832335,NA,"Not available",12.1655250605964,24.5356882927706,31.6227766016838,4.79583152331272,5.92029867904149,13
"Pediatric",602,175,NA,"Not available",12.1655250605964,24.5356882927706,31.6227766016838,24.5356882927706,2.24551266781415,14
"Pediatric",515,32755,NA,"Not available",12.1655250605964,24.5356882927706,31.6227766016838,22.6936114358204,4.51529086244152,15
"Pediatric",1357,247165,NA,"Not available",12.1655250605964,24.5356882927706,31.6227766016838,36.8374809127877,5.39298872924874,16
"Pediatric",804,171751,NA,"Not available",12.1655250605964,24.5356882927706,31.6227766016838,28.3548937575157,5.23490180298869,17
"Pediatric",254,1332,NA,"Not available",12.1655250605964,24.5356882927706,31.6227766016838,15.9373774505092,3.12483014941386,18
"Pediatric",2,183912,0.3,"Not available",12.1655250605964,24.5356882927706,31.6227766016838,1.4142135623731,5.26461242868735,19
"Pediatric",307,30049,7.5,"Not available",12.1655250605964,24.5356882927706,31.6227766016838,17.5214154679352,4.47784447633876,20
"Pediatric",NA,290,NA,"Not available",12.1655250605964,24.5356882927706,31.6227766016838,NA,2.46389298898591,21
"Pediatric",107,17574,NA,"Not available",12.1655250605964,24.5356882927706,31.6227766016838,10.3440804327886,4.24489533369186,22
"Pediatric",4,329391,2,"Not available",12.1655250605964,24.5356882927706,31.6227766016838,2,5.51771304717725,23
"Pediatric",1053,502,35,"Not available",12.1655250605964,24.5356882927706,31.6227766016838,32.4499614791759,2.70156798505593,24
"Pediatric",148,153673,NA,"Not available",12.1655250605964,24.5356882927706,31.6227766016838,12.1655250605964,5.18660039572558,25
